INDEX VERSION 1.127+/Users/worldit_21/Documents/Ana/Tese/.metadata/.plugins/org.eclipse.jdt.core
4103544854.index
1819685514.index
2777386132.index
1384487945.index
4116324836.index
3266567714.index
3321539481.index
965335243.index
1271342938.index
3199462873.index
766201509.index
2147531794.index
3369272816.index
346711152.index
1833648217.index
489563832.index
3785765040.index
3145990890.index
786462423.index
2214074492.index
1165542491.index
3975215079.index
3712507179.index
1116271856.index
4082578982.index
3302703152.index
4059364602.index
156905802.index
2545238116.index
1410404440.index
