Vou tentar adicionar música /Users/Ana/Copy/Originais/16bits/30segundos/Audi A4 allroad quattro - Trailer.wav

addSong>> Info da música: Audi A4 allroad quattro - Trailer.wav
File: /Users/Ana/Copy/Originais/16bits/30segundos/Audi A4 allroad quattro - Trailer.wav
Channels: 1, Frames: 2483591
IO State: READING
Sample Rate: 44100, Block Align: 2
Valid Bits: 16, Bytes per sample: 2

>> Vou inserir a original Audi A4 allroad quattro - Trailer.wav na BD 

Vou tentar adicionar música /Users/Ana/Copy/Originais/16bits/30segundos/Boa_vibe-Boss_AC-Ritmo_Amor_e_Palavras-2005.wav

addSong>> Info da música: Boa_vibe-Boss_AC-Ritmo_Amor_e_Palavras-2005.wav
File: /Users/Ana/Copy/Originais/16bits/30segundos/Boa_vibe-Boss_AC-Ritmo_Amor_e_Palavras-2005.wav
Channels: 1, Frames: 2165488
IO State: READING
Sample Rate: 44100, Block Align: 2
Valid Bits: 16, Bytes per sample: 2

>> Vou inserir a original Boa_vibe-Boss_AC-Ritmo_Amor_e_Palavras-2005.wav na BD 

Vou tentar adicionar música /Users/Ana/Copy/Originais/16bits/30segundos/Chandelier(Piano_Version)-Sia-unknown-2015.wav

addSong>> Info da música: Chandelier(Piano_Version)-Sia-unknown-2015.wav
File: /Users/Ana/Copy/Originais/16bits/30segundos/Chandelier(Piano_Version)-Sia-unknown-2015.wav
Channels: 1, Frames: 1556210
IO State: READING
Sample Rate: 44100, Block Align: 2
Valid Bits: 16, Bytes per sample: 2

>> Vou inserir a original Chandelier(Piano_Version)-Sia-unknown-2015.wav na BD 

Vou tentar adicionar música /Users/Ana/Copy/Originais/16bits/30segundos/Delilah-Florence_And_The_Machine-How_Big_Blue_And_Beautiful-2015.wav

addSong>> Info da música: Delilah-Florence_And_The_Machine-How_Big_Blue_And_Beautiful-2015.wav
File: /Users/Ana/Copy/Originais/16bits/30segundos/Delilah-Florence_And_The_Machine-How_Big_Blue_And_Beautiful-2015.wav
Channels: 1, Frames: 1363056
IO State: READING
Sample Rate: 44100, Block Align: 2
Valid Bits: 16, Bytes per sample: 2

>> Vou inserir a original Delilah-Florence_And_The_Machine-How_Big_Blue_And_Beautiful-2015.wav na BD 

Vou tentar adicionar música /Users/Ana/Copy/Originais/16bits/30segundos/Elastic_Heart-Sia-unknown-2015.wav

addSong>> Info da música: Elastic_Heart-Sia-unknown-2015.wav
File: /Users/Ana/Copy/Originais/16bits/30segundos/Elastic_Heart-Sia-unknown-2015.wav
Channels: 1, Frames: 1570373
IO State: READING
Sample Rate: 44100, Block Align: 2
Valid Bits: 16, Bytes per sample: 2

>> Vou inserir a original Elastic_Heart-Sia-unknown-2015.wav na BD 

Vou tentar adicionar música /Users/Ana/Copy/Originais/16bits/30segundos/Nova Gama Citroën C4.wav

addSong>> Info da música: Nova Gama Citroën C4.wav
File: /Users/Ana/Copy/Originais/16bits/30segundos/Nova Gama Citroën C4.wav
Channels: 1, Frames: 1299966
IO State: READING
Sample Rate: 44100, Block Align: 2
Valid Bits: 16, Bytes per sample: 2

>> Vou inserir a original Nova Gama Citroën C4.wav na BD 

Vou tentar adicionar música /Users/Ana/Copy/Originais/16bits/30segundos/Novo Ford C-MAX #MentirasParaMiúdos.wav

addSong>> Info da música: Novo Ford C-MAX #MentirasParaMiúdos.wav
File: /Users/Ana/Copy/Originais/16bits/30segundos/Novo Ford C-MAX #MentirasParaMiúdos.wav
Channels: 1, Frames: 2867132
IO State: READING
Sample Rate: 44100, Block Align: 2
Valid Bits: 16, Bytes per sample: 2

>> Vou inserir a original Novo Ford C-MAX #MentirasParaMiúdos.wav na BD 

Vou tentar adicionar música /Users/Ana/Copy/Originais/16bits/30segundos/Novo Peugeot 308 GT. Sinta o espírito GT.wav

addSong>> Info da música: Novo Peugeot 308 GT. Sinta o espírito GT.wav
File: /Users/Ana/Copy/Originais/16bits/30segundos/Novo Peugeot 308 GT. Sinta o espírito GT.wav
Channels: 1, Frames: 1325195
IO State: READING
Sample Rate: 44100, Block Align: 2
Valid Bits: 16, Bytes per sample: 2

>> Vou inserir a original Novo Peugeot 308 GT. Sinta o espírito GT.wav na BD 

Vou tentar adicionar música /Users/Ana/Copy/Originais/16bits/30segundos/Official Land Rover YouTube Channel_ Go Above And Beyond.wav

addSong>> Info da música: Official Land Rover YouTube Channel_ Go Above And Beyond.wav
File: /Users/Ana/Copy/Originais/16bits/30segundos/Official Land Rover YouTube Channel_ Go Above And Beyond.wav
Channels: 1, Frames: 1410551
IO State: READING
Sample Rate: 44100, Block Align: 2
Valid Bits: 16, Bytes per sample: 2

>> Vou inserir a original Official Land Rover YouTube Channel_ Go Above And Beyond.wav na BD 

Vou tentar adicionar música /Users/Ana/Copy/Originais/16bits/30segundos/RENAULT TALISMAN _ maîtrisez votre trajectoire.wav

addSong>> Info da música: RENAULT TALISMAN _ maîtrisez votre trajectoire.wav
File: /Users/Ana/Copy/Originais/16bits/30segundos/RENAULT TALISMAN _ maîtrisez votre trajectoire.wav
Channels: 1, Frames: 1328256
IO State: READING
Sample Rate: 44100, Block Align: 2
Valid Bits: 16, Bytes per sample: 2

>> Vou inserir a original RENAULT TALISMAN _ maîtrisez votre trajectoire.wav na BD 

Vou tentar adicionar música /Users/Ana/Copy/Originais/16bits/30segundos/Skoda Superb _ First Drive _ Autocar India.wav

addSong>> Info da música: Skoda Superb _ First Drive _ Autocar India.wav
File: /Users/Ana/Copy/Originais/16bits/30segundos/Skoda Superb _ First Drive _ Autocar India.wav
Channels: 1, Frames: 18306432
IO State: READING
Sample Rate: 44100, Block Align: 2
Valid Bits: 16, Bytes per sample: 2

>> Vou inserir a original Skoda Superb _ First Drive _ Autocar India.wav na BD 

Vou tentar adicionar música /Users/Ana/Copy/Originais/16bits/30segundos/Stay_with_Me-Sam_Smith-Unknown-2015 .wav

addSong>> Info da música: Stay_with_Me-Sam_Smith-Unknown-2015 .wav
File: /Users/Ana/Copy/Originais/16bits/30segundos/Stay_with_Me-Sam_Smith-Unknown-2015 .wav
Channels: 1, Frames: 1430130
IO State: READING
Sample Rate: 44100, Block Align: 2
Valid Bits: 16, Bytes per sample: 2

>> Vou inserir a original Stay_with_Me-Sam_Smith-Unknown-2015 .wav na BD 

Vou tentar adicionar música /Users/Ana/Copy/Originais/16bits/30segundos/SuperRottamazione Alfa Romeo.wav

addSong>> Info da música: SuperRottamazione Alfa Romeo.wav
File: /Users/Ana/Copy/Originais/16bits/30segundos/SuperRottamazione Alfa Romeo.wav
Channels: 1, Frames: 1313489
IO State: READING
Sample Rate: 44100, Block Align: 2
Valid Bits: 16, Bytes per sample: 2

>> Vou inserir a original SuperRottamazione Alfa Romeo.wav na BD 

Vou tentar adicionar música /Users/Ana/Copy/Originais/16bits/30segundos/Take_Me_To_Church-Hozier-unknown-2015.wav

addSong>> Info da música: Take_Me_To_Church-Hozier-unknown-2015.wav
File: /Users/Ana/Copy/Originais/16bits/30segundos/Take_Me_To_Church-Hozier-unknown-2015.wav
Channels: 1, Frames: 1392004
IO State: READING
Sample Rate: 44100, Block Align: 2
Valid Bits: 16, Bytes per sample: 2

>> Vou inserir a original Take_Me_To_Church-Hozier-unknown-2015.wav na BD 

Vou tentar adicionar música /Users/Ana/Copy/Originais/16bits/30segundos/The all-new BMW 7 Series. All you need to know.wav

addSong>> Info da música: The all-new BMW 7 Series. All you need to know.wav
File: /Users/Ana/Copy/Originais/16bits/30segundos/The all-new BMW 7 Series. All you need to know.wav
Channels: 1, Frames: 21707136
IO State: READING
Sample Rate: 44100, Block Align: 2
Valid Bits: 16, Bytes per sample: 2

>> Vou inserir a original The all-new BMW 7 Series. All you need to know.wav na BD 

Start test @ 1452728525471
Número de fingerprints actual do Repositório : 46
Número de Músicas actual do Repositório : 15


 	 ************************ Início da fase de Identificação ************************ 



 >>  A amostra escolhida aleatoriamente para reconhecimento é :/Users/Ana/Copy/SAMPLes/16bits/Jan-16/adele_tlm.wav**

A identificação não foi conseguida...
Resultado do matching final: 
Identificação (acima) levou 2.553 segundos



 >>  A amostra escolhida aleatoriamente para reconhecimento é :/Users/Ana/Copy/SAMPLes/16bits/Jan-16/Boa_vibe-Boss_AC-Ritmo_Amor_e_Palavras-2005-2.wav**

A identificação não foi conseguida...
Resultado do matching final: 
Identificação (acima) levou 1.225 segundos



 >>  A amostra escolhida aleatoriamente para reconhecimento é :/Users/Ana/Copy/SAMPLes/16bits/Jan-16/Boa_vibe-Boss_AC-Ritmo_Amor_e_Palavras-2005.wav**

A identificação não foi conseguida...
Resultado do matching final: 
Identificação (acima) levou 1.238 segundos



 >>  A amostra escolhida aleatoriamente para reconhecimento é :/Users/Ana/Copy/SAMPLes/16bits/Jan-16/boss2_tlm.wav**

A identificação não foi conseguida...
Resultado do matching final: 
Identificação (acima) levou 1.143 segundos



 >>  A amostra escolhida aleatoriamente para reconhecimento é :/Users/Ana/Copy/SAMPLes/16bits/Jan-16/boss_tlm.wav**

A identificação não foi conseguida...
Resultado do matching final: 
Identificação (acima) levou 1.39 segundos



 >>  A amostra escolhida aleatoriamente para reconhecimento é :/Users/Ana/Copy/SAMPLes/16bits/Jan-16/Chandelier(Piano_Version)-Sia-unknown-2015-2.wav**

A identificação não foi conseguida...
Resultado do matching final: 
Identificação (acima) levou 1.152 segundos



 >>  A amostra escolhida aleatoriamente para reconhecimento é :/Users/Ana/Copy/SAMPLes/16bits/Jan-16/Chandelier(Piano_Version)-Sia-unknown-2015.wav**

A identificação não foi conseguida...
Resultado do matching final: 
Identificação (acima) levou 1.134 segundos



 >>  A amostra escolhida aleatoriamente para reconhecimento é :/Users/Ana/Copy/SAMPLes/16bits/Jan-16/Delilah-Florence_And_The_Machine-How_Big_Blue_And_Beautiful-2015-2.wav**

A identificação não foi conseguida...
Resultado do matching final: 
Identificação (acima) levou 1.164 segundos



 >>  A amostra escolhida aleatoriamente para reconhecimento é :/Users/Ana/Copy/SAMPLes/16bits/Jan-16/Delilah-Florence_And_The_Machine-How_Big_Blue_And_Beautiful-2015.wav**

A identificação não foi conseguida...
Resultado do matching final: 
Identificação (acima) levou 1.08 segundos



 >>  A amostra escolhida aleatoriamente para reconhecimento é :/Users/Ana/Copy/SAMPLes/16bits/Jan-16/ed-thinking2_tlm.wav**

A identificação não foi conseguida...
Resultado do matching final: 
Identificação (acima) levou 1.391 segundos



 >>  A amostra escolhida aleatoriamente para reconhecimento é :/Users/Ana/Copy/SAMPLes/16bits/Jan-16/ed-thinking_tlm.wav**

A identificação não foi conseguida...
Resultado do matching final: 
Identificação (acima) levou 2.119 segundos



 >>  A amostra escolhida aleatoriamente para reconhecimento é :/Users/Ana/Copy/SAMPLes/16bits/Jan-16/ed-you2_tlm.wav**

A identificação não foi conseguida...
Resultado do matching final: 
Identificação (acima) levou 2.575 segundos



 >>  A amostra escolhida aleatoriamente para reconhecimento é :/Users/Ana/Copy/SAMPLes/16bits/Jan-16/ed-you_tlm.wav**

A identificação não foi conseguida...
Resultado do matching final: 
Identificação (acima) levou 1.702 segundos



 >>  A amostra escolhida aleatoriamente para reconhecimento é :/Users/Ana/Copy/SAMPLes/16bits/Jan-16/Elastic_Heart-Sia-unknown-2015-2.wav**

Offset =0	Ratio = 3.4482758620689653	 hits = 1000	 frame = 290	 Nome da música: Boa_vibe-Boss_AC-Ritmo_Amor_e_Palavras-2005.wav
* Resultado encontrado SEM Hanning! *
>Identificação feita!
>Música Reconhecida : Boa_vibe-Boss_AC-Ritmo_Amor_e_Palavras-2005.wav na frame da amostra: 290 com o offset 0
>A amostra começa aproximadamente na frame 0 da música original. (0 segundos) 
>Identificação feita com 26.93514739229025 segundos da amostra!
Resultado do matching final: 
Identificação (acima) levou 1.046 segundos



 >>  A amostra escolhida aleatoriamente para reconhecimento é :/Users/Ana/Copy/SAMPLes/16bits/Jan-16/Elastic_Heart-Sia-unknown-2015.wav**

A identificação não foi conseguida...
Resultado do matching final: 
Identificação (acima) levou 1.412 segundos



 >>  A amostra escolhida aleatoriamente para reconhecimento é :/Users/Ana/Copy/SAMPLes/16bits/Jan-16/hideaway_tlm.wav**

A identificação não foi conseguida...
Resultado do matching final: 
Identificação (acima) levou 1.56 segundos



 >>  A amostra escolhida aleatoriamente para reconhecimento é :/Users/Ana/Copy/SAMPLes/16bits/Jan-16/opera_tlm.wav**

A identificação não foi conseguida...
Resultado do matching final: 
Identificação (acima) levou 0.298 segundos



 >>  A amostra escolhida aleatoriamente para reconhecimento é :/Users/Ana/Copy/SAMPLes/16bits/Jan-16/royals_tlm.wav**

A identificação não foi conseguida...
Resultado do matching final: 
Identificação (acima) levou 1.709 segundos



 >>  A amostra escolhida aleatoriamente para reconhecimento é :/Users/Ana/Copy/SAMPLes/16bits/Jan-16/Stay_with_Me-Sam_Smith-Unknown-2015 .wav**

A identificação não foi conseguida...
Resultado do matching final: 
Identificação (acima) levou 0.829 segundos



 >>  A amostra escolhida aleatoriamente para reconhecimento é :/Users/Ana/Copy/SAMPLes/16bits/Jan-16/Stay_with_Me-Sam_Smith-Unknown-2015-2.wav**

A identificação não foi conseguida...
Resultado do matching final: 
Identificação (acima) levou 1.098 segundos



 >>  A amostra escolhida aleatoriamente para reconhecimento é :/Users/Ana/Copy/SAMPLes/16bits/Jan-16/Take_Me_To_Church-Hozier-unknown-2015-2.wav**

A identificação não foi conseguida...
Resultado do matching final: 
Identificação (acima) levou 0.964 segundos



 >>  A amostra escolhida aleatoriamente para reconhecimento é :/Users/Ana/Copy/SAMPLes/16bits/Jan-16/Take_Me_To_Church-Hozier-unknown-2015.wav**

A identificação não foi conseguida...
Resultado do matching final: 
Identificação (acima) levou 1.096 segundos


End test @ 0
Test Duration = 29884 em segundos:  29
Terminei
