Vou tentar adicionar música /Users/Ana/Copy/Originais/16bits/30segundos/Audi A4 allroad quattro - Trailer.wav

addSong>> Info da música: Audi A4 allroad quattro - Trailer.wav
File: /Users/Ana/Copy/Originais/16bits/30segundos/Audi A4 allroad quattro - Trailer.wav
Channels: 1, Frames: 2483591
IO State: READING
Sample Rate: 44100, Block Align: 2
Valid Bits: 16, Bytes per sample: 2

>> Vou inserir a original Audi A4 allroad quattro - Trailer.wav na BD 

