40,80,120,180,300,400
40,80,150,290,340,420
40,90,150,290,330,460
50,90,160,250,310,490
40,80,170,280,320,410
40,80,170,180,370,400
70,80,150,260,370,420
40,90,170,190,380,400
70,80,130,200,390,400
60,90,140,230,340,480
50,90,130,260,350,450
60,100,140,290,380,440
70,90,140,230,320,490
70,90,140,270,360,450
60,90,160,180,300,400
70,80,150,270,320,410
50,100,120,290,300,400
50,100,140,210,310,420
60,110,120,230,340,460
60,110,120,230,340,450
60,110,120,230,310,450
60,100,130,210,310,420
40,100,140,200,300,400
70,90,170,260,350,430
60,90,170,260,340,430
60,90,170,260,340,430
70,80,170,260,340,430
50,90,170,250,340,430
50,80,170,250,330,410
40,80,170,230,310,470
70,90,170,270,340,400
40,110,140,230,340,410
40,90,140,270,300,400
40,100,150,220,380,450
40,90,140,230,370,430
40,90,150,240,380,460
60,90,170,250,340,420
60,90,170,260,330,410
40,110,170,280,340,450
70,110,120,290,350,410
70,110,170,250,330,430
70,110,140,270,340,420
70,100,140,280,340,420
70,90,140,270,350,420
40,90,170,270,310,420
40,80,140,230,310,410
40,100,140,230,310,420
40,100,130,230,310,410
40,100,150,280,310,410
40,100,120,230,310,410
40,100,120,230,310,410
40,100,150,280,310,410
40,100,140,230,310,420
40,100,150,230,300,420
40,80,120,230,310,410
40,100,130,250,310,410
40,100,170,180,360,410
40,110,120,230,340,420
40,110,120,230,340,460
40,110,120,230,340,400
40,110,120,230,340,410
40,110,140,230,340,410
40,110,120,230,340,410
40,100,120,230,360,400
40,110,120,230,350,410
40,90,140,270,340,410
40,100,140,200,310,410
40,100,140,210,310,400
40,100,140,200,310,410
40,110,140,210,310,410
40,90,140,210,310,410
40,100,140,200,310,410
40,110,140,270,370,410
40,100,140,290,350,410
40,110,140,210,350,450
40,110,130,230,370,420
70,100,170,260,380,430
40,110,140,210,310,420
40,90,170,260,350,440
40,90,170,260,360,450
40,100,140,290,310,400
40,110,170,280,310,420
40,110,130,270,310,410
60,110,140,220,330,420
50,110,120,220,340,460
70,110,120,230,340,420
40,110,120,230,350,460
70,110,120,230,340,460
40,100,130,200,300,400
40,100,130,210,310,410
40,100,140,240,340,410
40,100,150,220,300,460
40,80,160,240,390,470
40,80,140,250,330,420
60,90,170,250,340,430
40,90,170,250,330,420
40,80,170,240,320,420
40,80,150,240,320,420
40,90,160,250,320,470
40,80,170,250,330,410
40,90,150,260,310,460
70,90,130,270,330,460
60,90,130,270,380,470
50,90,140,270,360,420
70,90,130,270,330,460
70,90,140,280,330,430
40,90,140,240,330,420
40,90,140,270,320,420
40,90,140,270,340,420
40,90,140,270,320,420
40,80,160,230,310,410
40,90,140,230,310,410
40,100,120,230,310,410
40,100,140,230,310,410
40,100,160,230,310,410
40,100,140,230,310,410
40,100,120,230,310,440
40,100,160,250,340,470
40,100,120,280,390,440
40,100,140,230,390,410
70,90,130,220,320,460
70,100,140,230,310,420
60,90,130,260,390,400
70,110,130,270,390,400
40,100,160,270,320,480
40,110,150,290,300,460
40,90,150,290,320,420
60,100,170,290,310,460
40,100,170,290,340,470
40,110,170,260,350,470
70,100,140,280,340,460
70,80,140,270,350,470
70,100,140,200,350,410
40,100,140,210,340,410
40,90,140,270,340,410
40,100,140,200,350,410
40,110,140,210,310,410
40,80,140,210,310,410
50,100,170,260,300,490
40,110,170,250,300,440
40,110,150,250,300,460
40,110,170,280,310,460
40,100,170,190,300,470
70,100,120,290,300,400
40,100,150,290,300,480
40,100,140,290,300,420
40,100,140,200,300,420
40,100,140,200,310,410
40,90,140,200,310,410
40,90,140,270,340,440
40,90,140,210,310,440
40,100,140,280,310,460
40,90,170,190,310,480
40,100,140,200,300,400
40,100,140,200,300,490
70,100,140,270,310,410
60,90,140,270,300,440
50,110,170,270,310,470
40,90,150,280,300,450
40,90,160,260,310,470
40,100,170,290,340,490
40,100,170,180,340,480
50,100,170,270,340,490
70,90,170,270,350,450
70,90,170,270,350,450
50,90,170,270,320,450
40,90,170,270,340,450
40,90,140,270,320,460
70,90,170,270,360,460
70,90,140,270,320,460
40,90,140,270,360,460
60,110,170,240,310,430
40,100,170,270,330,440
40,110,170,270,320,460
40,110,170,280,330,410
70,110,130,220,310,430
60,90,130,260,390,400
60,90,140,290,300,450
50,90,150,290,300,450
40,110,140,290,300,460
50,90,150,290,310,460
50,100,160,290,310,460
40,100,150,290,300,460
50,100,150,290,310,460
50,80,160,290,310,460
50,100,150,270,310,460
50,80,150,290,310,460
50,110,170,180,300,430
60,110,170,250,360,400
60,90,130,180,370,490
60,100,170,260,360,400
60,100,170,200,360,490
40,90,170,180,340,490
60,80,160,280,310,470
60,110,170,270,320,400
60,110,130,270,320,400
50,110,140,280,340,420
70,90,140,270,340,410
60,100,130,260,390,400
60,110,140,270,310,440
60,100,140,270,310,460
60,100,170,270,310,420
40,100,140,270,350,480
40,100,130,270,340,410
50,100,170,290,310,420
40,100,170,280,340,420
40,110,170,280,300,420
40,110,170,270,340,460
70,100,140,260,300,410
70,80,140,260,300,410
40,100,170,270,300,410
40,100,130,270,390,410
40,110,130,270,310,410
40,90,120,270,390,410
40,110,150,270,310,440
40,110,130,270,370,430
70,110,130,270,320,430
40,90,130,250,310,410
40,90,130,270,310,410
40,100,120,260,300,410
40,100,140,260,300,430
40,100,170,250,300,450
40,100,170,270,310,410
40,110,170,250,310,410
40,80,130,250,310,460
40,90,170,270,310,470
40,100,170,260,310,410
60,100,170,260,310,410
70,90,140,270,320,410
70,90,140,270,350,460
60,90,140,270,320,460
70,90,140,270,320,460
40,90,120,270,320,460
40,90,140,270,340,460
70,90,140,270,340,460
40,90,140,270,300,460
70,90,120,290,310,450
40,90,170,260,310,430
40,100,160,230,310,460
40,90,170,220,310,460
40,100,120,230,320,460
40,100,140,270,350,460
50,80,140,230,310,460
50,100,130,260,310,460
50,100,130,260,310,440
40,100,130,230,340,460
40,100,130,230,350,420
40,100,160,270,350,470
40,80,150,230,330,460
60,80,140,230,360,440
70,100,130,270,330,460
70,80,150,230,300,450
70,110,150,240,330,460
60,100,170,270,350,410
70,100,140,270,300,440
60,90,140,270,310,460
60,110,150,290,310,460
40,100,150,270,310,460
70,90,170,280,340,420
70,110,170,270,340,400
40,110,170,270,340,420
70,80,170,290,340,410
70,80,170,270,310,430
70,100,170,210,340,410
70,90,170,200,310,410
60,100,140,200,340,410
40,110,170,210,310,410
40,80,170,200,310,410
70,100,170,270,310,480
70,100,130,290,310,430
40,90,170,290,310,480
40,100,170,270,340,430
40,100,170,290,330,440
50,100,130,270,300,400
70,100,140,290,300,400
40,100,140,210,310,420
70,100,140,290,310,420
40,90,130,260,300,410
40,100,120,240,340,400
40,90,140,270,310,490
40,90,130,260,310,410
70,110,170,270,310,440
40,90,140,270,310,440
40,90,170,180,310,480
40,90,170,210,330,410
60,110,170,260,310,420
70,100,120,260,330,490
40,110,170,270,310,450
40,80,160,270,310,460
50,110,170,290,310,460
40,110,170,290,310,450
70,110,170,290,340,470
60,110,170,220,340,410
40,90,170,270,340,460
70,90,170,270,340,460
50,90,140,270,340,450
40,90,160,270,350,410
40,90,120,270,300,410
40,90,140,270,350,410
40,90,140,270,340,410
40,90,140,270,340,410
50,90,140,270,320,460
40,100,170,280,310,440
40,90,170,270,330,450
40,80,170,230,300,450
40,80,170,260,340,460
70,100,130,270,390,410
70,100,140,270,310,450
50,100,150,290,300,450
50,110,150,290,300,450
60,110,160,290,310,460
40,100,150,290,300,460
40,100,160,290,310,460
50,100,160,290,310,460
50,80,150,290,310,460
40,100,160,270,310,460
50,80,150,290,310,450
70,80,130,230,300,460
70,100,170,180,360,420
60,100,170,180,360,410
60,100,170,180,340,400
40,100,170,180,360,460
60,100,160,290,350,420
40,90,160,290,320,460
70,100,140,280,300,440
40,100,140,270,300,410
60,110,140,280,300,420
70,110,130,270,340,400
70,100,140,280,310,410
70,110,140,280,310,410
40,90,140,270,310,410
70,80,140,270,310,410
70,110,130,270,300,410
70,90,140,270,340,410
70,90,140,270,310,440
70,110,160,230,320,440
70,80,170,180,350,410
70,80,140,180,350,410
70,80,170,220,350,410
60,80,150,200,310,410
40,80,170,210,310,410
70,80,140,200,310,410
70,80,140,280,300,410
70,80,140,260,310,410
70,90,140,260,310,430
40,90,140,200,310,410
40,80,130,200,310,410
70,80,140,290,310,430
70,90,140,260,310,410
70,90,140,260,310,470
70,100,130,260,300,410
70,110,120,220,310,440
40,110,120,220,300,440
40,110,120,220,320,440
70,110,120,220,330,430
40,110,120,180,340,410
40,110,120,180,350,430
40,100,120,180,350,430
40,110,120,180,340,410
40,110,120,190,340,430
40,100,130,180,350,440
40,110,130,180,380,440
40,110,140,290,300,430
40,100,150,260,300,430
40,110,130,280,300,420
40,110,130,230,310,430
40,110,120,200,370,460
40,110,120,200,370,460
