50,110,150,190,390,420
60,110,170,190,310,480
50,90,170,190,300,400
60,90,170,190,350,450
70,80,170,190,350,400
70,110,170,190,340,410
50,100,170,190,340,410
60,110,120,190,350,400
70,100,150,190,390,400
70,110,170,190,360,410
70,110,160,190,350,480
60,110,170,190,330,430
60,100,170,190,350,410
40,100,170,180,340,450
70,90,170,280,300,440
70,110,170,260,340,410
70,110,160,260,300,410
70,110,170,290,380,470
70,80,170,260,390,470
70,110,170,280,340,410
70,100,170,230,340,410
70,110,170,270,300,450
60,90,130,290,320,460
70,110,170,270,350,490
70,110,170,260,340,470
70,80,170,250,340,480
60,110,170,230,340,490
70,110,170,280,350,420
70,100,170,260,320,480
70,110,150,280,310,410
70,100,140,270,310,460
70,110,160,270,390,400
70,110,170,270,390,410
70,110,170,260,350,480
70,90,170,260,380,410
40,80,160,280,310,440
60,100,150,270,350,430
60,100,170,260,310,410
60,110,130,260,350,460
60,110,170,200,350,410
60,110,170,280,350,410
60,100,170,280,350,400
50,110,170,290,340,410
60,110,130,260,310,480
70,100,150,280,310,410
60,100,130,200,310,410
50,100,160,260,310,410
70,90,150,260,310,490
70,100,160,260,320,460
70,110,150,260,310,460
70,90,150,260,310,460
60,110,150,260,390,460
70,100,150,260,310,460
60,80,140,260,320,460
50,100,150,260,310,460
70,100,150,260,310,460
50,80,170,270,310,460
70,100,150,290,300,460
60,110,170,260,350,400
50,110,170,260,390,460
50,110,170,260,390,400
60,90,130,290,380,400
60,110,150,290,390,410
70,100,170,280,380,400
70,80,170,260,300,400
70,80,150,290,390,400
70,80,150,290,310,460
40,90,150,290,300,400
60,110,140,290,390,450
70,110,150,290,390,460
70,90,170,290,310,460
70,90,150,230,390,460
60,100,150,290,380,460
70,90,170,290,300,400
60,110,160,290,390,450
60,100,170,190,310,450
70,110,170,290,310,400
70,90,170,260,380,400
60,110,160,290,350,400
60,100,140,290,350,400
70,80,150,270,350,400
60,90,160,270,310,400
40,110,170,260,310,410
70,100,170,250,350,440
50,110,170,260,380,440
60,110,170,260,350,490
70,100,170,200,340,420
70,110,170,260,340,400
60,110,170,260,350,430
40,110,170,260,310,410
50,100,170,280,360,420
60,100,130,260,390,400
70,110,160,260,340,410
40,110,130,200,340,450
70,80,140,290,310,420
50,90,150,260,310,460
60,100,170,260,310,460
60,110,150,260,340,400
70,100,170,260,350,460
50,100,170,260,350,400
50,100,150,270,310,410
70,100,160,260,310,410
70,110,170,260,380,400
60,80,170,260,340,400
70,90,130,260,380,490
70,90,170,250,370,490
60,100,170,260,310,460
70,100,170,260,380,460
50,110,170,260,310,400
50,90,170,290,310,400
70,110,170,290,360,410
70,110,150,290,300,400
70,110,150,260,310,460
60,80,170,270,310,400
50,110,170,290,310,460
70,110,170,270,350,400
50,100,170,260,380,430
70,110,160,260,300,410
50,110,140,270,350,410
60,110,120,290,300,410
70,110,170,280,390,400
60,100,170,260,310,410
70,100,150,260,310,400
70,100,150,260,390,410
70,100,150,260,310,410
40,100,150,250,310,400
50,100,150,260,310,410
70,100,140,260,310,460
60,110,150,260,310,410
60,110,160,250,310,460
70,90,170,260,310,490
70,100,150,260,310,410
70,90,150,260,360,400
70,110,160,260,300,420
50,100,160,280,310,410
70,90,170,200,310,470
60,90,170,290,300,400
40,110,150,290,380,480
60,110,130,290,380,400
60,110,150,280,310,460
70,100,170,290,390,480
50,90,170,290,390,460
70,80,160,290,380,460
60,110,150,290,390,450
70,100,150,280,380,460
60,110,150,290,390,460
40,80,150,230,380,450
70,100,150,290,380,470
70,90,150,280,380,460
70,90,150,290,310,460
70,110,150,260,300,450
60,110,170,290,310,400
70,90,160,290,380,460
70,110,140,290,390,460
70,110,170,290,310,400
60,100,170,290,390,400
70,100,170,290,350,460
40,110,140,290,380,460
60,80,170,290,350,460
50,110,150,280,390,430
70,90,170,290,300,460
40,90,130,280,310,470
60,90,170,260,310,470
50,110,170,260,380,420
70,110,170,280,340,480
50,110,170,260,340,430
70,90,160,260,320,430
50,100,170,260,300,430
70,80,170,290,340,430
60,100,170,290,310,420
60,80,170,270,380,400
40,110,160,260,390,470
70,110,170,290,350,470
70,110,170,280,340,430
60,110,170,280,350,480
60,110,170,260,340,490
50,110,170,260,320,430
40,110,120,230,360,460
50,110,150,290,320,400
70,90,170,290,320,410
40,110,170,260,350,400
50,100,170,200,340,410
70,100,170,270,350,410
60,110,170,290,340,400
50,100,170,210,340,400
70,80,170,290,350,400
60,90,170,190,310,400
60,100,170,250,350,400
70,100,170,290,340,460
70,110,170,270,310,460
40,100,170,200,350,410
60,90,150,200,310,400
40,100,130,290,350,410
40,90,170,260,340,400
60,110,150,280,300,410
60,110,170,270,390,400
60,110,170,270,390,400
50,110,170,290,360,460
40,110,170,190,350,400
70,90,170,230,350,410
50,100,170,230,310,400
70,110,150,230,310,460
70,100,150,260,300,480
70,100,150,260,340,490
70,110,170,270,350,410
70,90,170,270,340,410
60,110,160,260,310,410
70,110,150,260,300,410
70,110,150,260,300,460
40,110,170,260,310,460
70,100,170,260,390,460
60,90,170,260,390,410
50,80,170,260,380,460
70,110,130,260,310,410
70,110,130,260,310,460
70,110,150,260,390,410
50,100,140,260,310,410
70,110,140,260,350,450
60,80,150,260,380,460
70,110,160,270,310,400
70,110,160,260,380,460
70,100,150,260,300,460
70,90,130,260,310,400
70,110,150,260,300,400
60,90,150,260,390,410
50,90,160,260,310,460
60,100,150,260,380,400
40,90,150,260,310,400
70,110,150,260,390,400
60,80,170,270,310,460
50,100,150,290,310,400
50,100,150,280,380,400
70,100,150,290,380,400
70,110,150,260,380,460
70,110,150,260,310,460
70,90,170,290,300,460
70,100,150,260,390,460
60,80,140,270,310,460
60,110,140,270,350,460
60,110,140,260,380,460
60,110,160,290,310,460
60,100,170,260,390,400
70,90,170,260,390,460
70,110,170,260,390,400
70,110,170,260,380,410
70,100,170,260,380,460
70,80,170,260,380,460
70,90,170,260,300,460
40,90,170,290,340,460
70,80,170,260,340,470
40,110,170,260,350,400
50,80,130,260,350,400
60,110,170,260,360,400
70,100,170,280,340,470
60,110,170,290,340,430
40,80,160,270,350,430
70,110,170,250,350,440
70,110,170,210,350,430
70,80,170,260,350,470
70,100,170,260,340,410
50,110,170,250,310,400
70,90,120,260,310,400
70,100,130,290,300,420
70,110,170,250,300,400
70,100,170,290,310,440
70,100,170,290,310,410
70,100,170,200,310,490
70,100,140,270,310,410
70,100,170,270,310,410
70,110,170,290,310,460
70,100,170,280,310,460
70,100,170,290,310,460
70,110,170,270,320,410
70,100,170,200,340,460
60,110,170,200,310,410
70,110,170,290,390,460
70,100,170,270,310,450
70,110,160,270,350,400
50,110,170,220,350,410
60,100,170,230,350,410
60,110,170,240,310,400
70,110,170,250,300,480
50,110,170,270,340,490
70,100,170,260,340,400
60,90,170,260,350,420
70,110,170,260,340,490
70,100,170,260,310,460
70,110,170,260,300,460
70,100,150,260,310,410
70,110,170,260,310,410
60,110,170,260,310,460
70,110,170,260,310,410
60,90,150,260,300,490
60,110,170,290,390,410
40,110,170,270,300,460
50,100,170,260,310,460
70,100,150,260,330,410
40,110,130,260,380,460
70,110,150,250,390,450
60,90,150,260,380,460
40,110,150,260,390,480
40,100,170,250,310,460
70,90,150,260,310,400
70,110,150,260,310,460
60,110,150,260,310,460
50,110,150,260,300,460
70,80,170,290,310,460
70,110,160,290,320,460
60,110,150,290,310,460
70,110,150,270,310,460
60,100,170,290,310,460
70,110,150,290,310,460
60,100,150,270,300,450
70,90,150,260,310,460
70,100,170,260,300,460
70,100,170,260,310,450
70,100,130,260,390,460
70,100,150,260,350,460
70,110,160,260,390,460
70,110,170,260,380,480
70,90,150,280,390,400
70,100,170,270,380,400
70,110,170,260,350,430
70,110,170,260,380,400
60,90,170,260,380,410
60,90,170,260,390,400
70,100,170,260,310,400
60,110,170,260,350,450
70,110,170,260,380,400
60,100,170,260,380,400
70,110,150,270,390,400
60,100,130,260,310,400
70,100,170,290,310,400
70,80,170,290,300,430
70,110,170,260,310,430
70,100,170,250,320,480
70,110,170,270,310,420
60,100,170,260,350,430
60,110,120,290,340,470
70,100,170,260,350,460
70,100,130,260,350,430
60,110,120,280,350,410
70,100,140,280,340,460
70,100,140,280,340,460
