70,80,160,190,380,460
60,90,150,190,300,450
70,100,170,190,380,480
70,110,170,280,350,460
60,110,120,190,390,400
50,100,170,190,330,400
60,110,170,190,350,410
70,110,130,190,360,470
70,100,170,190,390,490
70,110,170,190,390,410
70,90,170,190,350,490
70,80,170,190,350,400
70,110,170,190,340,490
60,100,170,180,350,410
60,110,170,290,360,400
60,110,170,290,330,410
70,110,170,190,330,410
70,100,170,280,360,410
60,100,170,190,350,410
70,110,120,230,350,410
70,100,120,210,350,410
60,100,120,290,330,450
70,100,170,200,320,470
70,110,120,200,350,480
50,100,120,200,340,460
70,100,130,200,350,480
70,90,170,180,310,490
70,90,170,190,340,410
70,100,120,230,300,450
70,100,130,190,310,410
60,110,130,270,350,410
70,100,120,270,390,480
40,110,120,280,390,430
70,110,120,260,390,480
60,90,170,290,330,410
70,90,170,260,350,420
70,90,170,260,320,480
60,90,130,260,310,410
50,110,160,260,350,480
50,110,170,260,350,400
60,100,130,270,350,410
50,100,160,200,390,410
60,110,170,210,310,410
40,100,150,260,310,410
70,90,150,200,320,400
70,90,150,290,300,420
60,100,170,290,380,410
70,90,150,260,300,400
70,90,170,260,300,410
50,100,150,200,310,410
50,110,160,210,360,410
50,110,160,260,390,420
60,100,160,260,300,400
50,100,160,210,390,420
70,100,150,260,320,410
50,100,170,260,310,400
40,90,130,180,310,410
40,90,130,290,320,410
70,90,150,270,390,400
70,90,170,290,380,400
70,90,150,280,390,400
40,110,130,290,390,400
70,100,120,290,390,400
50,90,130,290,390,400
70,90,150,190,390,410
70,110,170,290,390,410
50,90,150,290,390,400
70,110,140,290,390,410
60,110,170,290,380,400
60,80,170,260,390,400
50,100,160,210,390,450
40,100,150,290,380,400
50,90,170,280,380,410
60,90,170,270,390,400
70,90,170,260,390,450
70,80,140,190,390,400
70,100,170,280,380,400
60,100,170,250,380,400
60,110,120,180,350,460
60,110,120,180,350,400
50,110,170,180,320,490
60,110,170,180,310,400
60,110,170,180,320,410
60,110,170,270,390,400
70,110,120,180,370,440
60,100,170,260,350,460
70,110,170,260,340,410
60,110,170,260,350,410
70,110,170,180,350,410
50,100,150,250,310,410
50,100,160,190,350,450
50,110,120,270,390,400
60,110,170,210,350,410
60,110,170,220,370,440
50,110,160,220,310,410
50,100,120,180,300,400
50,110,120,180,350,410
60,100,130,180,350,410
60,100,170,260,350,420
60,100,170,210,390,410
60,110,120,180,390,400
60,100,170,210,380,420
60,110,170,280,340,450
70,110,170,260,330,410
60,100,170,190,390,410
70,100,150,260,350,480
70,100,150,250,310,410
50,100,170,250,390,410
70,90,140,270,310,410
50,100,150,200,300,410
50,100,150,200,310,410
70,100,170,290,300,420
50,100,160,210,310,410
50,100,160,210,300,410
50,100,160,210,310,400
70,100,150,210,390,420
60,100,150,200,390,480
70,100,120,200,350,410
60,110,160,200,350,410
50,100,160,210,300,420
50,100,160,210,350,400
50,100,160,260,320,410
70,110,160,200,370,400
40,110,160,250,390,410
70,100,160,260,330,410
60,100,170,250,320,400
70,100,150,260,310,410
50,100,170,260,330,420
70,110,150,260,310,410
60,90,160,260,310,410
60,110,170,290,380,400
70,90,150,260,390,410
50,110,140,280,350,420
60,90,130,290,310,480
70,100,160,270,310,410
60,110,160,260,320,410
70,100,120,220,320,410
60,110,120,240,360,460
40,100,120,190,320,440
70,110,140,290,310,410
70,100,130,250,380,480
50,110,120,220,390,400
50,100,120,200,340,460
70,100,170,210,310,460
70,100,120,190,310,450
70,110,160,190,380,440
70,100,150,190,310,460
50,100,150,200,390,440
70,90,150,290,390,400
70,100,170,180,380,460
70,100,120,190,390,400
70,110,120,230,310,400
70,110,140,200,390,410
70,110,120,200,310,410
70,110,170,230,300,460
50,110,120,280,380,400
60,100,120,290,310,400
70,110,120,230,350,460
70,110,120,220,350,420
70,100,120,200,300,430
70,90,120,180,360,460
70,100,120,190,390,490
50,90,170,260,390,480
40,100,170,280,390,400
70,100,170,260,390,480
40,110,170,260,390,410
70,100,170,260,390,480
70,90,170,270,390,400
70,100,170,260,310,430
70,90,160,260,310,420
70,110,120,290,320,420
70,100,170,210,380,400
70,110,120,290,350,480
70,110,120,220,330,490
70,110,120,220,320,430
70,90,170,220,350,400
70,90,170,180,300,400
70,80,120,280,350,410
70,100,120,220,320,400
70,90,170,190,320,410
70,100,170,190,390,410
70,90,170,190,340,400
70,90,170,190,350,410
70,100,170,180,340,400
70,90,170,190,340,410
70,80,170,190,350,400
70,110,170,280,320,400
60,90,170,290,350,400
60,110,170,220,310,410
50,100,170,270,350,450
70,100,170,290,350,410
50,110,150,190,390,480
60,110,120,180,310,410
60,110,120,180,310,410
70,80,150,220,300,410
70,100,120,200,390,400
70,80,120,220,390,410
70,100,170,190,350,410
70,110,120,180,350,410
70,110,120,230,350,410
70,110,170,230,310,400
70,110,120,220,310,490
70,110,120,210,300,400
70,100,170,210,350,410
60,100,150,210,350,420
70,100,120,260,300,410
50,100,120,260,310,410
70,110,120,220,300,410
70,80,120,260,310,490
70,110,120,210,310,460
70,100,130,210,310,410
70,110,120,210,320,430
70,110,130,190,320,440
70,90,130,200,310,400
70,80,150,220,360,410
70,80,150,200,390,410
70,80,140,210,300,410
70,110,130,200,350,410
70,100,130,200,380,410
70,100,150,180,390,400
60,90,170,180,390,400
60,90,120,260,390,410
70,90,120,260,310,420
60,90,130,270,380,400
70,100,130,260,390,410
70,90,170,180,310,400
70,80,150,190,380,400
70,80,170,290,310,400
70,100,120,200,390,400
70,90,120,280,390,400
70,100,170,190,390,400
70,100,150,290,380,400
70,100,150,290,390,400
70,100,150,260,390,410
60,100,150,260,310,460
50,100,170,270,390,400
70,90,170,290,390,400
70,90,150,260,320,410
70,100,130,260,390,460
70,100,120,260,380,410
70,90,170,280,310,460
70,80,150,290,390,400
70,110,170,260,390,430
70,110,120,260,390,400
60,100,170,260,380,420
70,90,170,290,380,410
70,110,170,290,380,460
60,100,160,260,350,410
70,100,170,260,390,400
70,110,120,220,320,420
70,100,140,270,340,410
70,110,140,200,350,410
70,80,130,200,350,440
70,80,170,180,340,420
70,80,160,270,310,490
70,90,170,180,350,400
60,110,120,210,350,430
70,110,170,210,350,430
70,80,170,210,350,490
70,110,120,210,310,490
60,90,130,250,350,490
60,100,130,200,310,460
60,110,140,260,310,410
70,90,120,200,350,410
70,100,120,200,310,400
70,110,170,290,310,410
60,110,120,290,310,480
60,80,150,280,300,400
60,100,150,270,300,410
50,110,170,180,310,400
70,110,170,180,310,460
70,110,170,180,310,460
70,90,170,180,310,400
70,110,170,270,370,410
70,100,170,270,350,400
40,90,170,270,390,410
50,110,150,290,310,400
70,100,170,190,340,410
60,110,170,220,350,410
60,110,160,280,310,400
70,80,140,260,310,400
70,80,170,250,340,400
60,110,130,250,340,410
70,90,170,260,350,410
60,110,170,260,310,410
60,90,170,260,340,490
70,110,120,240,320,460
70,110,120,230,340,440
70,110,120,230,350,470
70,100,130,210,310,420
70,100,120,200,320,420
