40,90,130,220,370,400
40,110,170,200,380,450
40,80,160,290,320,400
50,110,130,290,310,420
50,110,170,180,330,460
40,110,170,180,340,450
40,90,170,180,360,400
60,90,170,180,340,400
40,110,120,180,340,400
40,80,160,220,360,480
50,110,170,180,330,490
50,110,170,180,340,490
40,100,160,180,330,490
40,100,170,180,330,420
40,90,170,180,330,490
50,110,160,290,340,440
70,110,150,290,300,430
40,110,130,260,390,400
70,110,130,260,300,410
40,110,140,280,300,430
40,110,120,240,350,400
40,110,120,220,390,420
60,110,140,270,390,410
40,110,130,280,370,400
70,80,120,280,320,410
70,110,150,290,300,450
60,80,150,280,300,450
70,100,150,290,300,450
60,110,130,280,300,400
50,90,140,280,390,420
70,110,140,280,300,420
70,110,130,260,300,430
60,110,130,260,390,400
50,110,130,260,300,400
40,90,130,230,310,450
40,90,140,280,300,420
40,110,130,270,390,410
50,110,140,270,300,400
50,110,130,260,390,410
40,110,140,260,390,400
50,90,120,260,380,490
70,110,130,260,390,480
40,110,130,260,390,400
50,110,120,260,390,400
60,110,130,260,390,400
40,110,170,190,390,400
50,90,120,230,380,460
50,110,140,290,300,430
50,110,130,260,390,400
40,110,120,270,380,410
70,110,130,250,380,400
40,90,130,270,390,400
40,110,170,260,340,410
70,110,120,230,350,470
50,100,120,210,310,400
40,100,130,200,340,440
70,80,150,190,310,460
40,80,150,230,300,460
40,80,120,220,310,470
50,100,150,190,380,490
50,80,150,190,390,480
50,90,150,190,320,400
50,110,120,210,360,410
50,100,120,200,360,410
50,100,120,200,300,410
50,110,120,210,300,410
50,90,160,200,360,460
50,100,120,200,350,420
60,110,120,180,310,490
60,110,120,200,310,490
60,110,120,200,310,450
50,110,120,200,310,450
60,80,120,200,310,410
60,110,120,230,310,450
60,110,120,180,310,460
60,110,130,180,310,470
60,110,120,200,310,400
60,110,120,200,300,410
70,110,150,230,300,460
40,80,120,200,310,460
40,80,140,190,300,410
40,80,120,270,390,450
40,80,120,270,390,460
40,80,140,190,340,410
50,100,120,190,320,420
50,100,130,190,320,420
50,100,120,190,300,430
50,110,120,200,310,410
50,110,120,200,300,410
50,100,120,210,310,400
60,80,120,190,360,430
60,80,120,240,310,410
60,110,160,240,360,410
60,110,120,200,310,460
60,110,150,200,300,410
60,80,140,240,310,480
70,90,140,240,310,410
40,80,120,190,300,400
40,110,160,200,380,410
40,110,120,230,390,460
40,110,160,230,340,430
70,80,140,180,320,420
70,80,140,200,360,430
70,80,120,230,300,420
70,110,120,210,300,400
50,100,130,200,330,410
70,100,170,200,310,490
50,80,120,200,360,460
40,80,130,200,310,480
40,80,130,190,300,400
40,100,140,190,330,410
70,80,130,200,390,460
60,80,120,190,320,410
60,90,130,190,340,400
60,80,120,190,300,400
60,110,140,200,360,440
60,80,130,210,340,420
50,110,130,280,330,420
70,80,150,220,340,410
40,80,170,180,360,430
40,80,160,240,320,430
40,90,140,230,300,430
70,80,160,230,310,470
50,80,140,290,300,420
70,80,140,270,300,410
40,80,140,270,390,400
40,80,140,270,390,410
70,80,150,190,390,410
40,80,120,250,380,490
70,100,130,250,310,430
50,100,120,240,360,490
40,110,120,240,350,490
50,110,120,240,370,480
40,80,120,250,370,490
40,80,130,260,310,490
40,80,130,250,370,400
70,90,120,200,370,400
60,80,120,240,360,480
40,80,120,240,360,480
40,110,120,230,330,440
40,110,160,220,330,410
50,110,120,230,350,410
50,80,120,200,310,410
50,80,150,200,310,410
40,80,150,200,370,400
50,80,120,210,300,410
50,100,140,200,330,410
50,110,120,230,350,470
70,110,120,250,370,490
50,110,120,240,370,490
50,110,120,250,370,490
70,110,140,270,370,410
70,110,140,270,300,410
70,110,120,270,380,400
70,110,130,260,300,400
40,110,140,290,300,430
70,110,130,270,300,400
70,110,120,250,370,400
70,110,120,250,330,450
70,110,120,230,360,440
70,110,120,230,340,470
50,110,120,230,340,470
70,100,120,200,310,410
40,100,160,200,300,400
60,110,120,230,330,470
40,80,120,290,390,460
70,100,120,200,300,410
50,110,160,210,310,400
60,100,120,200,300,420
50,100,120,200,310,410
50,110,120,200,310,400
50,110,120,200,310,470
50,110,120,240,310,470
60,110,120,200,310,490
60,110,120,180,360,490
60,90,120,200,310,460
60,110,120,190,310,400
60,110,120,200,310,420
60,110,120,200,310,480
60,110,120,240,310,420
60,110,120,210,310,410
60,110,120,200,310,410
60,110,130,250,380,400
50,110,150,290,300,460
40,80,140,280,300,420
40,80,140,190,300,410
40,110,150,270,310,490
40,80,140,290,300,430
40,80,140,270,300,420
50,90,130,200,310,480
50,100,140,280,300,400
50,100,130,270,300,480
40,100,120,210,310,410
50,110,120,210,320,460
60,100,150,240,310,410
60,110,120,180,300,400
60,100,120,190,370,420
60,100,120,200,310,480
60,90,120,200,350,400
60,110,140,270,390,400
70,80,130,260,300,400
70,80,120,240,300,400
40,80,140,280,300,410
40,80,160,230,320,410
70,110,120,230,360,420
60,110,160,210,310,410
70,100,120,210,320,410
70,110,120,210,310,410
40,110,120,210,320,410
70,90,170,210,360,440
40,80,170,200,370,490
70,110,120,250,370,400
40,80,150,210,350,460
40,90,120,200,320,420
40,110,120,230,340,410
70,100,140,200,300,400
40,100,150,200,300,410
60,110,140,200,310,410
60,80,170,200,310,400
60,100,160,210,310,410
60,110,160,210,320,420
70,100,140,200,300,410
70,100,150,200,300,460
40,100,140,210,320,420
40,110,120,210,310,450
40,80,130,230,310,460
70,80,140,230,310,460
40,80,150,230,310,460
50,80,150,230,300,460
40,110,140,230,310,460
40,80,130,230,310,460
40,80,130,230,300,410
40,80,130,230,310,400
60,80,130,230,310,460
60,80,130,230,300,460
40,100,120,230,310,460
40,100,120,200,320,400
70,80,120,190,310,400
40,80,130,260,390,400
40,80,120,280,380,400
50,80,140,270,390,400
50,100,140,280,300,430
50,100,160,290,320,480
50,100,150,200,310,400
50,100,150,190,320,490
50,100,150,290,300,450
50,100,140,200,310,410
50,100,140,290,310,410
50,90,130,260,390,400
60,110,120,200,310,490
60,80,150,290,310,460
60,110,150,200,310,410
70,110,160,180,310,410
70,110,130,270,310,400
70,110,140,290,300,430
50,110,130,270,310,420
60,110,130,250,380,490
60,110,130,250,370,490
60,110,120,250,370,490
60,110,140,280,310,420
40,80,140,270,300,410
40,80,120,290,300,410
40,80,130,250,380,400
40,110,130,250,380,460
40,110,130,270,310,460
40,100,130,290,310,450
50,90,130,200,310,460
40,90,120,270,310,400
50,110,120,240,310,410
50,110,150,200,310,410
50,100,120,240,360,420
60,80,150,240,300,490
60,90,150,280,310,460
60,110,160,280,310,480
60,110,120,240,320,460
60,100,170,190,360,470
60,90,170,180,330,490
70,80,150,270,310,460
70,90,140,270,390,420
70,110,120,230,330,480
70,110,160,200,330,460
40,110,130,260,390,400
70,80,130,240,370,490
70,90,150,290,300,440
70,90,160,180,320,490
40,80,170,200,340,490
70,100,170,200,330,490
70,110,120,240,330,410
70,80,150,230,310,470
40,90,120,200,310,460
40,90,140,180,380,410
40,110,120,190,350,470
40,110,130,210,350,400
40,80,120,190,320,460
50,110,120,240,360,490
60,90,120,250,370,490
60,110,140,250,370,460
50,110,120,200,320,450
70,80,130,270,330,400
70,110,130,270,310,400
40,90,140,280,300,420
40,80,150,290,300,440
40,80,130,230,300,440
40,110,150,230,300,450
40,80,140,230,310,440
40,80,130,270,390,410
40,80,130,260,390,400
40,80,140,270,380,400
40,80,150,190,300,410
70,80,140,290,300,430
60,110,140,280,310,430
50,100,130,270,390,400
60,100,130,250,390,400
40,80,120,250,310,400
40,110,120,220,380,430
40,100,120,290,390,480
60,100,120,290,300,410
60,80,120,210,310,430
70,80,140,200,310,450
40,80,130,190,340,410
40,80,120,210,320,420
40,100,120,180,320,410
50,80,120,190,310,420
50,80,140,190,390,410
50,80,120,200,350,410
50,80,150,200,390,420
40,80,120,200,390,410
50,80,120,210,390,410
40,110,120,200,320,400
40,80,150,230,340,450
40,110,170,190,310,400
40,110,170,230,330,400
40,80,120,220,310,440
40,80,120,180,310,450
40,90,120,210,350,450
40,80,130,230,340,430
40,100,150,180,320,460
70,80,160,220,370,450
40,80,120,220,370,470
40,80,140,190,350,420
50,80,140,200,380,480
70,110,150,220,310,410
40,110,150,190,350,470
40,110,150,220,330,440
50,110,160,190,320,400
50,90,140,190,320,410
50,90,150,190,310,420
50,110,150,200,300,410
50,110,120,220,310,410
40,100,120,200,310,400
50,100,120,200,310,410
50,110,130,210,300,410
50,110,120,200,310,490
60,110,130,280,300,410
60,110,120,200,380,430
60,110,130,260,310,410
50,110,150,210,310,410
60,110,120,290,310,400
70,110,120,200,310,410
60,110,120,180,300,430
60,110,120,240,310,410
60,110,120,280,300,410
60,110,120,200,310,440
60,110,120,240,360,400
40,80,120,210,360,400
40,80,120,290,310,410
40,80,140,260,310,430
40,110,130,270,300,450
40,110,120,250,360,410
70,90,130,260,310,410
50,80,120,230,350,420
50,110,120,220,330,440
40,100,120,210,300,400
50,100,120,210,310,420
50,100,170,200,300,490
60,100,120,180,390,490
60,90,160,190,380,470
60,100,150,200,300,400
60,100,120,240,310,490
60,100,130,270,300,400
60,110,120,180,300,480
70,80,120,240,310,460
40,110,120,220,310,460
40,110,120,210,320,400
70,110,160,200,330,460
40,110,160,230,300,460
60,90,140,180,320,490
70,90,170,180,340,460
70,100,120,230,320,460
40,100,120,200,310,410
40,110,170,200,360,480
70,110,120,210,300,480
70,100,170,200,300,460
40,110,120,210,340,410
40,110,120,200,320,410
40,80,140,190,390,400
40,110,120,220,320,430
40,80,160,230,320,460
60,80,140,230,360,460
60,110,120,250,310,460
60,110,140,200,330,460
50,110,140,200,320,410
60,110,140,200,330,410
70,80,150,270,310,410
70,80,140,200,310,400
40,80,140,210,320,400
40,110,140,230,310,460
40,80,140,230,300,460
40,90,150,230,310,400
40,90,150,180,320,400
40,80,160,240,330,410
40,90,150,230,340,410
40,80,140,200,390,490
70,80,140,190,390,460
70,80,150,190,310,410
50,100,130,210,310,410
50,100,140,200,310,410
70,90,120,220,300,430
40,100,120,280,320,440
40,110,120,260,310,400
60,80,120,290,310,490
60,80,120,200,310,460
60,80,130,180,310,440
40,80,140,190,350,410
40,80,120,190,390,400
40,80,140,190,390,410
50,110,120,200,390,410
50,80,120,200,390,410
50,80,130,210,350,410
60,80,120,200,390,420
50,110,130,250,370,490
50,110,120,250,370,490
50,100,160,190,360,460
50,110,120,250,360,480
40,110,130,270,300,410
40,80,150,290,300,450
50,100,170,180,340,460
50,100,170,250,300,460
40,100,150,290,310,450
50,110,130,260,300,400
40,110,140,290,300,440
40,110,150,290,300,430
40,110,140,280,390,410
40,110,140,270,380,410
40,110,140,280,320,400
40,100,150,290,300,450
70,110,150,180,310,460
50,110,150,290,300,450
70,110,150,180,300,450
70,110,150,290,300,440
50,110,120,230,340,490
50,110,120,240,360,480
40,110,140,280,300,430
40,110,160,180,300,410
40,80,160,180,300,470
40,110,140,220,310,470
50,110,120,250,370,490
70,110,120,250,310,400
70,110,140,270,310,430
60,110,140,270,300,410
70,110,130,250,380,400
50,100,120,270,310,490
50,100,130,270,390,400
70,110,130,260,390,400
50,90,130,230,320,410
60,110,130,260,390,400
70,110,120,240,370,490
50,110,120,240,360,480
40,110,120,240,360,470
60,110,120,240,350,480
50,110,120,240,360,480
70,110,120,250,350,470
40,110,120,240,360,470
70,110,120,240,350,470
40,110,120,230,360,470
60,80,170,180,310,480
40,100,120,240,360,480
40,110,120,220,330,440
70,110,130,250,310,400
50,110,120,240,340,450
70,110,130,230,320,470
70,100,170,200,300,400
40,100,170,180,330,420
50,80,120,220,310,400
40,100,140,250,370,470
40,90,140,180,370,410
40,90,130,180,390,460
50,90,120,220,380,490
40,100,170,190,300,430
40,90,150,220,310,450
40,90,130,210,320,450
60,90,150,180,310,460
70,80,150,190,310,460
40,80,150,230,310,460
40,90,160,190,300,470
40,100,120,190,380,490
50,100,150,190,300,450
50,110,120,200,310,420
50,100,160,210,300,410
50,100,160,190,300,410
50,100,120,200,300,420
50,110,120,200,370,410
50,100,160,200,360,410
60,110,120,200,360,420
60,110,120,180,360,490
60,110,120,200,360,490
60,110,120,200,310,460
60,110,120,200,310,410
40,110,120,210,310,460
60,110,120,230,310,460
60,110,120,180,310,430
60,110,120,280,300,410
60,110,120,200,310,460
60,110,120,200,310,460
70,80,150,230,310,460
70,80,120,200,300,410
40,90,140,200,300,410
40,110,120,270,390,400
40,80,120,190,340,460
40,80,150,190,340,410
70,80,160,190,300,410
50,80,160,180,320,400
50,80,170,180,330,410
70,80,140,200,370,410
50,110,120,280,320,490
40,90,140,230,320,400
60,90,120,210,300,480
60,90,130,290,300,410
60,110,120,240,300,410
40,80,170,200,300,460
70,110,120,200,320,420
60,110,140,240,310,400
70,110,120,280,300,400
70,90,130,210,330,430
40,110,120,200,350,410
60,110,140,230,300,460
40,90,160,230,350,400
70,80,140,180,320,410
70,80,150,230,330,430
70,110,120,190,310,410
70,110,120,200,340,410
40,80,120,200,350,410
70,80,160,190,310,410
70,80,160,200,360,410
40,90,120,200,310,410
40,110,140,190,300,400
40,80,120,240,360,460
70,110,120,220,340,450
60,100,140,190,310,430
60,90,170,190,320,430
60,80,120,190,390,430
50,110,140,210,300,420
60,80,140,200,320,410
70,80,170,200,300,420
70,80,120,200,310,460
40,80,130,210,310,420
40,90,130,230,300,430
40,100,140,230,320,460
70,80,130,230,300,450
70,80,150,230,300,400
70,110,120,230,300,480
40,110,120,220,330,440
40,80,160,270,390,430
40,80,150,190,390,400
70,80,160,190,390,460
70,110,130,190,310,410
50,100,140,190,320,410
40,110,120,190,310,400
70,80,140,200,370,410
40,80,120,200,370,490
40,80,120,210,310,460
40,80,120,180,310,460
40,80,120,180,320,410
60,80,140,190,310,460
40,80,150,190,310,460
40,80,140,190,390,400
40,100,160,200,310,410
50,80,150,200,310,410
50,80,120,210,360,410
50,80,120,200,310,460
40,80,150,200,370,410
50,110,130,190,330,430
50,110,120,200,330,410
60,110,120,210,320,420
50,110,120,220,330,440
70,90,130,190,370,440
40,100,150,200,300,400
70,110,120,220,330,420
50,110,130,200,340,490
40,110,120,180,320,470
40,100,150,190,390,480
40,90,130,200,390,470
50,110,120,200,390,440
50,80,150,180,320,460
70,80,150,190,310,460
40,80,150,190,320,460
40,90,160,190,320,470
40,100,130,190,380,490
50,90,150,190,330,490
50,90,120,200,310,400
50,100,150,210,360,410
50,100,140,190,360,410
50,100,120,200,340,420
50,110,120,200,300,410
50,100,160,200,360,410
60,90,120,200,360,420
60,90,120,180,310,490
60,110,120,200,360,490
60,110,120,200,310,410
40,110,120,200,310,450
40,110,120,210,310,410
60,110,120,230,310,450
50,110,120,230,310,420
60,110,120,280,300,410
60,110,120,200,310,460
60,110,120,200,310,410
70,80,150,230,300,460
70,80,120,200,310,410
40,90,140,190,300,430
40,110,120,270,380,400
40,80,120,190,300,470
40,80,130,190,340,410
50,100,120,190,320,420
50,100,140,190,320,420
50,100,120,190,310,430
50,110,120,200,300,410
50,110,120,210,360,440
50,110,120,210,310,410
60,80,120,200,360,400
60,90,120,200,310,410
60,110,120,240,340,410
60,90,120,200,310,460
70,110,150,240,310,410
70,90,140,240,300,480
70,110,140,240,310,410
70,80,120,240,350,410
70,110,160,200,320,410
40,110,120,230,310,460
70,110,160,230,340,460
70,80,140,230,370,410
70,80,150,210,370,460
70,110,120,190,300,410
70,110,120,200,340,410
40,80,120,200,360,410
70,80,160,190,310,490
70,80,120,200,360,410
40,90,130,200,360,410
40,110,160,190,390,460
40,80,140,190,390,410
70,80,120,190,390,460
60,110,120,190,380,460
60,110,140,190,340,410
50,110,140,190,320,410
60,80,140,210,300,490
60,110,140,210,320,410
50,80,140,210,320,420
70,80,140,200,310,410
40,80,140,200,310,460
40,80,130,230,340,430
40,110,140,230,300,460
70,80,140,230,300,460
70,80,150,240,310,460
70,80,150,230,310,460
40,80,140,230,300,460
40,90,140,190,390,400
70,80,150,190,390,460
70,80,140,190,390,400
70,110,120,190,310,400
50,100,130,190,310,410
40,90,140,190,310,400
50,80,150,200,370,410
40,80,120,200,370,490
40,80,120,210,310,460
50,80,120,190,310,460
70,90,140,210,320,490
60,80,140,200,390,460
40,80,130,200,310,460
40,90,120,190,390,400
40,80,120,210,310,410
50,110,150,200,310,410
50,80,120,210,310,410
50,80,150,200,310,410
40,80,150,200,330,400
50,80,120,210,370,400
50,80,120,200,310,410
40,90,120,210,310,420
50,110,120,210,310,410
50,80,120,200,310,460
50,80,150,200,310,400
60,80,120,210,360,420
50,80,120,210,380,420
50,80,150,200,390,410
50,80,150,210,340,410
60,80,120,200,320,410
60,100,130,210,310,400
50,100,150,200,360,420
50,80,120,210,320,400
50,100,170,200,320,440
50,110,140,180,340,440
70,80,150,200,310,430
70,80,150,200,310,430
