70,80,130,250,310,400
40,80,140,290,360,430
40,80,140,290,360,430
70,80,120,220,330,440
70,80,130,220,330,430
50,110,150,290,330,440
70,90,140,290,330,440
70,80,150,230,340,470
40,80,120,290,360,440
70,80,150,230,330,430
70,80,150,210,360,440
40,110,140,230,360,460
70,80,140,230,320,460
70,80,140,290,320,440
70,110,140,230,350,400
40,110,150,250,340,440
70,80,150,220,360,440
60,110,140,220,320,460
70,110,150,180,350,440
40,90,120,220,340,440
60,90,150,220,360,430
40,100,120,200,320,470
50,80,160,240,340,490
50,90,120,180,320,410
70,80,160,230,390,490
40,100,120,220,330,490
40,80,150,180,320,400
70,80,140,260,320,490
40,90,150,240,320,490
70,80,160,240,330,490
70,90,160,240,330,460
70,80,140,180,370,410
70,110,160,240,330,410
70,80,160,240,320,410
70,80,160,220,320,460
70,80,160,240,320,400
70,80,140,240,330,410
40,80,160,250,320,460
70,80,160,240,320,430
40,80,160,250,320,460
70,80,160,240,320,400
70,80,160,230,390,460
40,80,120,180,320,440
40,80,120,270,380,450
40,80,140,250,320,490
70,80,140,290,360,420
70,90,140,290,360,430
70,80,120,290,360,400
70,90,140,290,330,440
50,90,120,220,330,440
50,90,170,290,330,490
40,80,140,220,340,420
70,80,170,220,340,430
40,90,150,220,350,430
60,80,150,290,360,430
60,80,150,220,340,440
50,110,140,210,330,430
70,90,170,290,320,470
40,80,150,220,390,430
70,80,140,290,360,430
50,90,130,290,320,430
40,80,140,290,360,430
40,80,170,220,340,430
50,80,130,220,330,430
40,110,140,240,330,430
40,90,170,220,360,430
50,80,150,220,360,430
60,80,140,220,330,430
40,80,150,290,360,430
50,80,150,290,360,430
50,90,140,290,360,430
50,80,150,290,320,430
50,80,140,290,320,440
70,80,170,290,320,430
40,80,170,220,320,440
70,80,140,220,360,470
70,90,140,290,330,430
50,80,140,220,390,430
70,80,140,220,360,430
70,80,140,220,350,430
40,100,150,290,320,470
70,90,140,290,360,430
50,90,170,290,310,430
70,80,150,220,320,430
40,80,150,220,360,430
40,80,120,220,360,440
50,90,150,190,300,450
40,80,130,220,320,430
40,80,120,260,320,430
70,80,160,260,320,430
50,80,160,260,320,430
50,80,160,260,330,430
50,80,170,260,320,430
50,80,130,260,320,430
50,100,170,260,320,430
60,100,130,190,390,430
50,90,160,190,320,430
70,80,130,190,320,430
40,100,160,260,320,430
70,100,130,220,330,430
50,90,160,190,320,430
70,80,160,260,330,430
70,100,160,260,320,430
50,90,160,220,320,430
50,80,160,260,320,430
50,80,160,260,330,430
50,80,160,240,320,430
50,80,170,260,320,430
50,100,170,190,320,430
70,100,160,190,320,490
60,90,170,220,320,480
40,80,170,260,340,480
70,80,170,260,320,450
50,100,160,260,320,430
70,100,170,220,390,450
50,80,160,220,390,490
60,80,170,260,330,430
40,80,130,190,320,430
70,80,170,260,320,430
40,80,170,190,390,490
50,90,130,220,330,490
70,90,170,260,330,490
50,80,130,260,320,430
40,100,170,220,320,430
70,100,170,260,320,490
50,100,120,240,320,430
60,90,160,260,320,480
50,80,170,260,320,490
50,80,120,260,330,430
40,80,170,200,320,450
70,80,170,290,390,400
40,110,170,220,340,410
70,110,170,290,380,460
50,100,170,230,390,410
40,110,170,290,380,400
40,90,120,290,380,460
50,90,130,230,380,460
60,90,170,290,380,460
60,80,170,230,380,480
40,80,170,230,380,460
50,110,170,290,390,460
40,110,170,190,380,460
70,110,120,290,380,460
40,90,120,290,390,460
40,80,170,290,390,400
70,80,140,230,380,460
50,90,170,290,380,460
60,100,170,290,390,460
60,110,150,190,380,460
60,80,150,290,370,400
50,110,160,290,380,400
40,110,120,230,380,470
70,110,120,230,340,480
40,80,120,290,390,460
40,90,170,190,340,490
40,90,140,290,340,460
70,80,170,290,340,480
70,80,170,290,340,450
60,100,140,230,340,460
60,80,170,230,340,460
50,80,170,290,340,470
70,80,170,290,350,460
70,110,170,290,340,490
60,80,170,230,300,460
70,80,120,290,340,480
40,80,140,230,340,460
40,100,150,290,340,460
70,110,170,230,340,480
40,100,120,290,340,480
60,110,120,190,340,460
40,80,170,290,340,480
60,90,170,290,340,480
40,80,170,250,360,490
40,90,120,240,320,480
40,80,160,240,320,430
70,80,160,220,330,480
40,80,160,260,320,430
60,80,160,220,320,400
60,80,160,260,330,430
50,80,160,260,370,430
40,80,160,260,320,440
40,80,160,240,340,480
40,80,160,240,320,490
40,80,160,240,320,430
40,80,160,240,320,480
40,80,160,240,320,440
40,80,160,220,320,410
40,80,160,260,320,490
40,90,160,220,330,430
40,80,160,240,320,430
40,80,160,240,320,430
40,80,160,240,320,490
60,80,160,260,330,490
50,80,160,260,320,490
40,90,170,260,320,430
70,80,150,260,320,430
50,80,160,220,320,430
40,110,160,220,320,430
40,80,160,270,330,430
70,110,160,220,380,430
40,80,160,220,330,430
60,80,140,250,340,430
60,80,130,220,320,430
60,80,130,240,340,430
60,90,170,210,380,430
70,110,160,260,330,430
40,80,130,220,320,430
70,110,160,220,320,430
50,80,160,220,320,430
40,80,160,260,320,490
70,110,160,220,380,430
40,110,150,220,320,440
60,110,150,220,340,430
40,80,150,290,340,490
60,80,140,260,340,430
40,80,170,270,320,450
60,90,170,290,380,460
40,80,170,220,340,430
50,90,160,290,340,480
50,80,170,290,350,460
60,100,170,220,350,430
60,110,160,220,340,440
60,80,130,220,340,430
60,80,160,290,340,440
70,110,170,270,340,440
70,80,170,270,340,430
50,80,170,220,380,460
50,90,170,220,380,430
70,80,170,220,340,460
50,90,170,270,340,460
60,80,160,210,340,430
50,80,160,270,340,460
70,90,170,270,340,430
50,100,170,270,340,450
60,110,160,270,340,490
70,110,170,270,340,430
50,80,130,220,320,450
70,90,140,270,330,440
70,90,160,270,320,430
50,100,160,270,320,480
60,90,140,270,320,430
70,80,140,270,330,480
50,80,160,270,330,430
70,80,140,270,320,410
60,90,140,270,320,410
50,80,160,280,320,410
50,80,130,270,320,410
40,110,140,270,320,410
70,80,140,220,320,430
50,80,140,220,340,480
50,80,160,220,310,430
60,90,140,220,330,430
40,80,140,220,320,430
40,110,160,220,340,430
50,100,170,220,330,410
50,80,160,220,330,430
50,90,160,220,330,430
50,80,120,220,330,430
60,80,140,220,330,430
40,100,140,210,380,430
60,80,160,200,370,490
50,80,140,180,380,430
40,80,120,210,350,440
50,80,170,270,390,420
40,80,170,270,330,430
50,80,140,260,300,410
40,90,120,220,300,420
60,80,170,180,330,430
70,90,120,190,350,400
70,80,120,200,360,420
40,80,160,180,300,430
40,80,160,180,310,430
40,80,160,260,310,440
70,100,150,250,320,470
70,80,150,220,310,410
70,80,150,180,330,440
60,90,140,220,360,430
70,90,140,290,320,430
40,110,160,290,350,430
70,80,160,290,320,400
70,80,140,220,320,410
70,80,140,290,310,430
50,90,140,220,350,430
50,90,150,210,380,430
50,80,120,220,320,430
50,90,150,180,300,430
50,80,140,220,360,430
50,90,170,220,320,430
40,80,140,220,360,430
50,80,140,290,360,430
60,80,140,230,310,430
70,80,140,210,360,430
60,80,140,220,310,430
60,80,140,220,330,430
50,80,150,220,380,430
60,90,140,180,310,430
70,80,140,210,300,400
70,80,160,180,360,410
70,80,140,180,330,430
50,110,140,210,360,430
50,80,140,200,300,400
60,110,150,200,330,440
70,80,150,180,360,430
70,90,130,210,360,430
70,80,150,210,360,430
70,80,170,210,360,440
70,80,150,220,360,440
70,80,160,290,360,440
70,80,140,240,330,400
70,110,150,260,360,430
70,100,140,290,330,430
70,110,150,290,360,470
50,80,140,210,360,430
70,100,150,210,310,400
70,110,150,210,360,400
70,80,150,290,360,440
70,110,140,220,310,420
50,80,120,290,320,420
70,110,150,250,340,410
70,110,140,210,350,420
70,80,140,220,360,410
70,80,140,290,360,400
70,80,150,250,350,420
70,80,130,290,380,430
70,80,150,290,360,420
40,80,140,290,330,430
70,90,120,290,360,410
40,90,140,290,360,430
60,80,140,290,350,420
50,90,140,180,320,430
60,80,140,290,350,440
50,100,120,290,370,450
40,80,120,210,350,420
70,80,120,180,350,420
40,80,130,250,350,410
40,90,120,190,350,420
70,80,120,200,340,440
40,80,160,180,360,420
40,100,140,260,370,400
40,80,120,270,360,410
50,100,130,180,330,420
40,100,130,190,370,400
50,80,120,190,370,420
40,90,130,190,350,400
40,110,120,230,350,430
40,110,120,230,350,430
